{
    "project_type": "javascript",

    "debugMode" : 1,
    "showFPS" : false,
    "frameRate" : 60,
    "id" : "gameCanvas",
    "renderMode" : 0,
    "engineDir":"frameworks/cocos2d-html5",

    "modules" : ["cocos2d"],

    "jsList" : [
        "src/resource.js",
        "src/app.js",
      "src/GameLayer.js",
      "src/Player.js",
      "src/Map.js",
      "src/Bullet.js",
      "src/Block.js",
      "src/FireBullet.js",
      "src/Weapons.js",
      "src/FireBulletWeapon.js",
      "src/NormalBullet.js",
      "src/NormalBulletWeapon.js",
      "src/GreenBullet.js",
      "src/GreenBulletWeapon.js",
      "src/HeartItem.js",
      "src/NukeBullet.js",
      "src/NukeBulletWeapon.js",
      "src/StartState.js",
      "src/GameoverState.js"
    ]
}
